enum_model_name,enum_model_csv_file
FinancialTransactionType,shared_financialtransactiontype.csv
PointTransactionType,shared_pointtransactiontype.csv
RequestDeclineReason,shared_requestdeclinereason.csv
RequestStatus,shared_requeststatus.csv
RequestActivityStatus,shared_requestactivitystatus.csv
RequestUserBookStatus,shared_requestuserbookstatus.csv
UserBookCondition,shared_userbookcondition.csv
UserBookStatus,shared_userbookstatus.csv
UserWishStatus,shared_userwishstatus.csv